{
  "project_info": {
    "project_number": "596046746491",
    "firebase_url": "https://friends-7ca8a.firebaseio.com",
    "project_id": "friends-7ca8a",
    "storage_bucket": "friends-7ca8a.appspot.com"
  },
  "client": [
    {
      "client_info": {
        "mobilesdk_app_id": "1:596046746491:android:364720138ea4fc08",
        "android_client_info": {
          "package_name": "com.example.jelena.friendssocialnetwork"
        }
      },
      "oauth_client": [
        {
          "client_id": "596046746491-15ud03ml3gl236lb1g0nau38m8041f1m.apps.googleusercontent.com",
          "client_type": 1,
          "android_info": {
            "package_name": "com.example.jelena.friendssocialnetwork",
            "certificate_hash": "6068608fb6f1d8e978c09964ef5fd7ae657e14bf"
          }
        },
        {
          "client_id": "596046746491-0elq60mn1bqdregaqk5h3stl6rjnhna6.apps.googleusercontent.com",
          "client_type": 3
        }
      ],
      "api_key": [
        {
          "current_key": "AIzaSyD5TMCW4Y1RdTBINisQwxAdpGjxiv5wzkg"
        }
      ],
      "services": {
        "analytics_service": {
          "status": 1
        },
        "appinvite_service": {
          "status": 2,
          "other_platform_oauth_client": [
            {
              "client_id": "596046746491-0elq60mn1bqdregaqk5h3stl6rjnhna6.apps.googleusercontent.com",
              "client_type": 3
            }
          ]
        },
        "ads_service": {
          "status": 2
        }
      }
    }
  ],
  "configuration_version": "1"
}